size(12cm,0);
import math;
import graph;
defaultpen(font("OT1","lmr","m","n")+fontsize(10));
//---------------------------------------------------------
transform s=shift((10,0));
//---------------------------------------------------------
draw((0,1)--(8,1));
draw((0,-1)--(8,-1));
label("\(I\). Blatt", (0,1), W);
label("\(II\). Blatt", (0,-1), W);

for(real i=0.5; i<8; i+=0.75)
{
  label("\(+\)", (i,1), N);
  label("\(+\)", (i,-1), S);
  label("\(-\)", (i,1), S);
  label("\(-\)", (i,-1), N);
}
//---------------------------------------------------------
draw(s*((0,0)--(8,0)));
dot("\(0\)", s*(4,0), S);

for(real i=0.5; i<4; i+=0.75)
{
  label("\(-\)", s*(i,0), S);
  label("\(-\)", s*(i,0), N);
}

for(real i=4.5; i<8; i+=0.75)
{
  label("\(+\)", s*(i,0), S);
  label("\(+\)", s*(i,0), N);
}
