size(4cm,0);
import math;
import graph;
defaultpen(font("OT1","lmr","m","n")+fontsize(10));
//---------------------------------------------------------
draw(circle((0,0), 1));
draw((0,0)--(-2.5,0));
dot((0,0));
dot("\(-1\)", (-1,0), SW);
