size(12cm,0);
import math;
import graph;
//---------------------------------------------------------
transform s=shift((5,0));
//---------------------------------------------------------
draw((0,-1)--(0,1));
dot("\(-\textup{i}\)", (0,-1), W);
dot("\(\textup{i}\)", (0,1), W);
label("\(+\)", (0,0), E);
label("\(-\)", (0,0), W);

dot("\(\frac{1}{2}\)", (0.5,0), S);
label("\([+\sqrt{\frac{5}{8}}]\)", (0.5,0), N);

dot("\(1\)", (1,0), N);
draw((1,0)--(3.5,0));
label("\((\textup{i})\)", (3,0), N);
label("\((\textup{i})\)", (3,0), S);

label("\(-\)", (1+1/3,0), N);
label("\(+\)", (1+1/3,0), S);

label("\(-\)", (1+2/3,0), N);
label("\(+\)", (1+2/3,0), S);

label("\(-\)", (2,0), N);
label("\(+\)", (2,0), S);

label("\(-\)", (2+1/3,0), N);
label("\(+\)", (2+1/3,0), S);

label("\(-\)", (2+2/3,0), N);
label("\(+\)", (2+2/3,0), S);
//---------------------------------------------------------
draw(s*((0,-1)--(0,1)));
dot("\(-\textup{i}\)", s*(0,-1), W);
dot("\(\textup{i}\)", s*(0,1), W);

dot("\(\frac{1}{2}\)", s*(0.5,0), S);
label("\([+\sqrt{\frac{5}{8}}]\)", s*(0.5,0), N);

dot("\(1\)", s*(1,0), N);
draw(s*((1,0)--(3.5,0)));
