usepackage("amsfonts");
size(6cm,0);
import math;
import graph;
defaultpen(font("OT1","lmr","m","n")+fontsize(10));
//---------------------------------------------------------
pair z0=(0,0), z1=(11,2);
//---------------------------------------------------------
//L1
draw(z0..(3,2.5)..(6,1)..(8,0.5)..z1);
label("\(\mathfrak{L}_1\)", (3,2.5), N);

//L2
draw(z0..(2,-0.5)..(5,0)..(6.8,1)..(7,2.5)..(5.2,1.5)
     ..(5,0)..(6,-0.5)..(8.5,1)..z1);
label("\(\mathfrak{L}_2\)", (2,-0.5), S);

dot("\(z_0\)", z0, W);
dot("\(z_1\)", z1, E);
