size(6cm,0);
import math;
import graph;
defaultpen(font("OT1","lmr","m","n")+fontsize(10));
//---------------------------------------------------------
transform s=shift((5,0));
//---------------------------------------------------------
draw((0,-1)--(0,1));
dot("\(-\textup{i}\)", (0,-1), W);
dot("\(\textup{i}\)", (0,1), W);
label("\(+\)", (0,0), E);
label("\(-\)", (0,0), W);

dot("\(\frac{1}{2}\)", (0.5,0), S);
label("\([+\sqrt{\frac{5}{8}}]\)", (0.5,0), N);

dot("\(1\)", (1,0), N);
draw((1,0)--(3.5,0));

label("\((\textup{i})\)", (3,0), N);
label("\((\textup{i})\)", (3,0), S);

label("\(-\)", (1+1/3,0), N);
label("\(+\)", (1+1/3,0), S);

label("\(-\)", (1+2/3,0), N);
label("\(+\)", (1+2/3,0), S);

label("\(-\)", (2,0), N);
label("\(+\)", (2,0), S);

label("\(-\)", (2+1/3,0), N);
label("\(+\)", (2+1/3,0), S);

label("\(-\)", (2+2/3,0), N);
label("\(+\)", (2+2/3,0), S);
