size(8cm,0);
import math;
import graph;
defaultpen(font("OT1","lmr","m","n")+fontsize(10));
//---------------------------------------------------------
draw((0,0)..(1,1)..(2,1.5));
dot((0,0));
dot((2,1.5));

draw((3,0)..(4,0.7)..(5,1.1));
dot("\(0\)", (3,0), W);
dot("\(1\)", (5,1.1), E);
draw(shift((0.1,-0.1))*subpath((3,0)..(4,0.7)..(5,1.1),
          0.5, 1.3), EndArrow);
