size(4cm,0);
import math;
import graph;
import patterns;
defaultpen(font("OT1","lmr","m","n")+fontsize(10));
//---------------------------------------------------------
add("strich", hatch(3mm, NE));
//---------------------------------------------------------
filldraw((-2,-2)..(-2.1,0)..(-2,2)..(-1,2.1)..(0,2.2)..(2,0)..
         (2.1,-1.9)..(2.2,-2)..(2,-2.1)..(0,-1.5)..cycle, pattern("strich"));
filldraw((-1,-1)..(-1,0)..(0,0)..(0,-1)..cycle, white);

filldraw((0.5,-0.5)..(0.5,0)..(0.7,0.5)..(1,0.6)..(0.8,-0.4)..cycle, white);
filldraw(circle((1,1),0.3),white, invisible);
label("\(\mbox{H}\)", (1,1));

draw((3,1)..(3.5,1.4)..(4,1.8)..(4.5,1.4)..(5,1)..(4,0.5)..cycle);
draw(shift((9,-4))*scale(1.5)*rotate(140)*((3,1)..(3.5,1.4)..(4,1.8)..(4.5,1.4)..(5,1)..(4,0.5)..cycle));
draw(scale(0.6)*shift((0.5,0))*((4,-2)..(4.5,-1.5)..(5,-2)..(4.5,-2.5)..cycle));
