size(5cm,0);
import math;
import graph;
defaultpen(font("OT1","lmr","m","n")+fontsize(10));
//---------------------------------------------------------
draw(          (0,0)..  (1,1)..  (2,1.1)..(4,0.5)..(5,1)..  (6,0.5));
draw((-1,0.5)..(0,1.2)..(1,1.4)..(2,1.6)..(4,1.3)..(5,1.5)..(6,1.3));
draw((-1,1.5)..(0,1.6)..(1,1.7)..(2,1.7)..(4,1.4)..(5,1.6)..(6,1.7));
draw(          (0,2.5)..(1,2)..  (2,2)..  (4,1.8)..(5,1.8)..(6,1.9));
draw(          (0.5,3)..(1,2.5)..(2,2.3)..(4,2.4)..(5,2.2)..(6,2.3));
