size(7cm,0);
import math;
import graph;
defaultpen(font("OT1","lmr","m","n")+fontsize(10));
//---------------------------------------------------------
guide g1=rotate(90)*((0,-2)..(-1,-1)..(-1,1)..(0,2)
  ..(0.5,0.8)..(0,0.5)..(-0.5,0)..(0,-0.5)..(0.5,-0.8)..cycle);
guide g2=reflect((0,0.3),(1,0.3))*g1;
//---------------------------------------------------------
draw(g1);
draw(g2);
label("\(\mbox{G}_2\)", (0,-0.8));
label("\(\mbox{G}_1\)", (0,1.4));

label("\(I\)", (1.3,0.3));
label("\(II\)", (-1.3,0.3));

dot("\(0\)", (0,0.3), SW);
