size(6cm,0);
import math;
import graph;
defaultpen(font("OT1","lmr","m","n")+fontsize(10));
//---------------------------------------------------------
real x=4, y=2;
//---------------------------------------------------------
draw((0,0)--(x,0)--(x,y)--(0,y)--cycle);

draw((1,0)--(1,y));
draw((1.3,0)--(1.3,y));
draw((0,0.7)--(x,0.7));
draw((0,1)--(x,1));

label("\(x_1y_1\)", (0,0), SW);
label("\(x_2y_1\)", (x,0), SE);
label("\(x_2y_2\)", (x,y), NE);
label("\(x_1y_2\)", (0,y), NW);
