size(8cm,0);
import math;
import graph;
defaultpen(font("OT1","lmr","m","n")+fontsize(10));
//---------------------------------------------------------
path p=(0,3)..(1.1,4.9)..(5,6.5)..(8,4.8)..(10,4.8)..(12,3.5)
   ..(13.5,4)..(15.5,4.5)..(16.8,2)..(16,0.5)..(15,0.5)
   ..(14,2.5)..(13,3)..(12,3)..(11,2.5)..(10,3.2)
   ..(8,3.1)..(7,2.2)..(4,1.1)..(3,1.1)..cycle;
//---------------------------------------------------------
for(int i=0; i<=17; ++i)
  draw((i,-0.2)--(i,7.2), 0.1mm+black);
for(int i=0; i<=7; ++i)
  draw((-0.2,i)--(17.2,i), 0.1mm+black);

draw((1,2)--(1,4)--(2,4)--(2,5)--(3,5)--(3,6)--(5,6)
  --(5,5)--(7,5)--(7,3)--(6,3)--(6,2)--cycle, 0.4mm+black);
dot((5.5,3.5));
label("\(Q_1\)", (3.6,3.5));

draw((14,4)--(16,4)--(16,1)--(15,1)--(15,3)--(14,3)
   --cycle, 0.4mm+black);
draw((15,4)--(15,3)--(16,3), 0.4mm+black);
draw((15,2)--(16,2), 0.4mm+black);

draw(p);
