size(12cm,0);
import math;
import graph;
defaultpen(font("OT1","lmr","m","n")+fontsize(10));
//---------------------------------------------------------
path p=(0,0)--(2,1)--(5,0)--(7,1)--(8,0)--(9,0.5)--(16,0.5);
//---------------------------------------------------------
draw(p, EndArrow);
dot(subpath(p, 0, 5));
