size(8cm,0);
import math;
import graph;
defaultpen(font("OT1","lmr","m","n")+fontsize(10));
//---------------------------------------------------------
path p=(3,0)--(9,0)--(9,3)--(12,3)--(12,6)--(15,6)
     --(15,12)--(9,12)--(9,15)--(0,15)--(0,12)--(6,12)
     --(6,9)--(0,9)--(0,6)--(3,6)--cycle;
path S=(7,-2)..(6.5,-1)..(5,-0.5)..(5,0)--(5,9)..(5,9.5)
     ..(3,11)..(2,10.5)..(-2,13);
//---------------------------------------------------------
for(int i=0; i<=15; ++i)
{
  draw((i,-0.2)--(i,15.2), 0.1mm+black);
  draw((-0.2,i)--(15.2,i), 0.1mm+black);
}
clip(p);

draw(p, 0.4mm+black);
draw(S, 0.4mm+black);
draw((4,4)--(4,5)--(6,5)--(6,4)--cycle, 0.4mm+black);
label("\(S\)", (5, 2.5), E);
