size(10cm,0);
import math;
import graph;
defaultpen(font("OT1","lmr","m","n")+fontsize(10));
//---------------------------------------------------------
transform t=shift((10,0));
//---------------------------------------------------------
draw((-3,0)--(3,0));
draw((0,0)--(1,0), Bars);
label("\(0\)", (0,-0.2), S);
label("\(1\)", (1,-0.2), S);
draw((0.5,0.5)--(2.5,0.5), EndArrow);

draw(t*((-4,0)--(-1,0)), EndBar);
draw(t*((1,0)--(4,0)), BeginBar);
label("\(-1\)", t*(-1,-0.2), 2*S);
label("\(+1\)", t*(1,-0.2), 2*S);
//draw(t*((1.5,0.5)--(3.5,0.5)), EndArrow);
//draw(t*((1.5,-0.5)--(3.5,-0.5)), BeginArrow);
draw(t*((3.5,-0.5)--(1.5,-0.5)..(1,0)..(1.5,0.5)--(3.5,0.5)), EndArrow);
