usepackage("amsfonts");
size(8cm,0);
import math;
import graph;
//---------------------------------------------------------
pair z0=(0,0), z=(3,-1);
real r=1;
path K=circle(z0,r);
path g1=(-3,2)..(1,3)..(2,2)..(4,-2)..(2,-4)..cycle;
path g2=(4.5,-2)..(5,-1)..(4.5,0)..(6,2)..(7,1.5)..(8,-1)
      ..(7,-3)..(6,-3)..cycle;
path i1=(2,0.5)..(2.2,0.5)..(2.5,0)..(2.2,0)..cycle;
path i2=(0,-3.5)..(1,-2.5)..(1,-2)..(0,-2)..(-1,-3)..cycle;
//---------------------------------------------------------
dot("\(z_0\)", z0, E);
dot(z);

draw(K, 0.4mm+black);
label("\(\mathfrak{K}\)", z0+(r,0), E);

draw(g1);
draw(i1);
draw(i2);
draw(g2);
label("\(g\)", (4,3));
draw((4,3)-(0.2,0.4)--(3,0));
draw((4,3)-(-0.3,0.2)--(6,1));
